-------------------------------------------------------------------------------
2017-03-29
BlackRock manages $5.1 trillion in assets
-------------------------------------------------------------------------------

-------------------------------------------------------------------------------
At the end of 2016, BlackRock had $275.1 billion in active stock AUM.
At the end of 2013, BlackRock had $317.3 billion in active stock AUM.
-------------------------------------------------------------------------------

-------------------------------------------------------------------------------
Mark Wiseman - former CEO of the Canada Pension Plan Investment Board.
-------------------------------------------------------------------------------

-------------------------------------------------------------------------------
-------------------------------------------------------------------------------