-------------------------------------------------------------------------------
Costco bought the Kirkland Signature golf balls from Nassau Golf, which also
manufactures balls for TaylorMade, a major equipment company.
-------------------------------------------------------------------------------

-------------------------------------------------------------------------------

-------------------------------------------------------------------------------
